dt,x,y,position,velocity,acceleration,jerk,heading
0.020000,0.003006,-0.911495,0.000197,0.019737,0.986842,49.342105,0.003298
0.020000,0.002739,-0.911496,0.000464,0.013327,-0.320479,-65.366045,0.003005
0.020000,0.002140,-0.911497,0.001063,0.029961,0.831672,57.607517,0.002348
0.020000,0.001077,-0.911499,0.002127,0.053176,1.160755,16.454188,0.001181
0.020000,0.001149,-0.911500,0.002199,0.003625,-2.477552,-181.915352,6.282549
0.020000,0.005880,-0.911510,0.006930,0.236531,11.645298,706.142506,6.279943
0.020000,0.012340,-0.911542,0.013390,0.323008,4.323847,-366.072549,6.276420
0.020000,0.020814,-0.911619,0.021865,0.423733,5.036243,35.619764,6.271861
0.020000,0.031601,-0.911772,0.032653,0.539409,5.783821,37.378894,6.266157
0.020000,0.045009,-0.912047,0.046064,0.670544,6.556747,38.646346,6.259217
0.020000,0.061367,-0.912507,0.062427,0.818191,7.382359,41.280553,6.250969
0.020000,0.081018,-0.913235,0.082092,0.983253,8.253077,43.535899,6.241363
0.020000,0.104191,-0.914332,0.105292,1.159952,8.834967,29.094519,6.230438
0.020000,0.130991,-0.915911,0.132138,1.342327,9.118734,14.188345,6.218318
0.020000,0.161529,-0.918099,0.162754,1.530789,9.423119,15.219240,6.205134
0.020000,0.195918,-0.921035,0.197268,1.725693,9.745213,16.104698,6.191032
0.020000,0.234274,-0.924870,0.235816,1.927399,10.085294,17.004094,6.176160
0.020000,0.276716,-0.929766,0.278538,2.136134,10.436744,17.572470,6.160670
0.020000,0.323353,-0.935891,0.325576,2.351871,10.786849,17.505256,6.144716
0.020000,0.374288,-0.943418,0.377064,2.574428,11.127875,17.051310,6.128451
0.020000,0.429621,-0.952521,0.433141,2.803818,11.469456,17.079032,6.112020
0.020000,0.489434,-0.963374,0.493931,3.039516,11.784899,15.772139,6.095567
0.020000,0.553806,-0.976149,0.559558,3.281363,12.092391,15.374607,6.079222
0.020000,0.622801,-0.991009,0.630135,3.528846,12.374108,14.085857,6.063109
0.020000,0.696470,-1.008109,0.705763,3.781386,12.627045,12.646862,6.047343
0.020000,0.774860,-1.027594,0.786538,4.038742,12.867786,12.037066,6.032026
0.020000,0.858003,-1.049594,0.872543,4.300253,13.075544,10.387893,6.017251
0.020000,0.945931,-1.074225,0.963855,4.565611,13.267887,9.617152,6.003100
0.020000,1.038663,-1.101588,1.060541,4.834274,13.433170,8.264131,5.989649
0.020000,1.136223,-1.131767,1.162662,5.106060,13.589277,7.805366,5.976964
0.020000,1.238629,-1.164828,1.270272,5.380513,13.722643,6.668303,5.965104
0.020000,1.345904,-1.200818,1.383423,5.657558,13.852280,6.481841,5.954126
0.020000,1.458073,-1.239765,1.502161,5.936895,13.966837,5.727856,5.944081
0.020000,1.575169,-1.281682,1.626533,6.218618,14.086169,5.966597,5.935020
0.020000,1.697234,-1.326557,1.756586,6.502614,14.199793,5.681169,5.926994
0.020000,1.824322,-1.374361,1.892368,6.789098,14.324197,6.220215,5.920056
0.020000,1.956502,-1.425043,2.033931,7.078161,14.453122,6.446240,5.914265
0.020000,2.093861,-1.478529,2.181336,7.370254,14.604691,7.578485,5.909686
0.020000,2.236325,-1.534651,2.334456,7.656008,14.287661,-15.851507,5.906397
0.020000,2.383662,-1.593135,2.492976,7.925975,13.498367,-39.464730,5.904483
0.020000,2.535652,-1.653675,2.656580,8.180205,12.711500,-39.343354,5.904034
0.020000,2.692100,-1.715932,2.824959,8.418978,11.938673,-38.641330,5.905144
0.020000,2.852829,-1.779532,2.997814,8.642729,11.187511,-37.558083,5.907914
0.020000,3.017688,-1.844071,3.174856,8.852085,10.467799,-35.985626,5.912464
0.020000,3.186552,-1.909111,3.355813,9.047854,9.788493,-33.965301,5.918927
0.020000,3.359327,-1.974174,3.540432,9.230951,9.154848,-31.682244,5.927460
0.020000,3.535947,-2.038749,3.728487,9.402755,8.590154,-28.234718,5.938246
0.020000,3.716383,-2.102273,3.919779,9.564588,8.091660,-24.924660,5.951502
0.020000,3.900642,-2.164135,4.114144,9.718299,7.685588,-20.303603,5.967482
0.020000,4.088768,-2.223660,4.311463,9.865910,7.380545,-15.252168,5.986484
0.020000,4.281055,-2.280157,4.511878,10.020781,7.743511,18.148286,6.008886
0.020000,4.478075,-2.332877,4.715830,10.197597,8.840824,54.865641,6.035170
0.020000,4.680479,-2.380906,4.923854,10.401209,10.180583,66.987988,6.065924
0.020000,4.888993,-2.423106,5.136596,10.637074,11.793274,80.634520,6.101858
0.020000,5.104404,-2.458045,5.354822,10.911299,13.711254,95.899021,6.143812
0.020000,5.327496,-2.483906,5.579408,11.229313,15.900664,109.470470,6.192753
0.020000,5.558959,-2.498390,5.811324,11.595791,18.323906,121.162125,6.249743
0.020000,5.799164,-2.498628,6.051529,12.010236,20.722280,119.918712,0.032657
0.020000,6.047844,-2.481172,6.300821,12.464604,22.718363,99.804146,0.108742
0.020000,6.303601,-2.442160,6.559535,12.935731,23.556370,41.900344,0.195188
0.020000,6.563393,-2.377811,6.827179,13.382181,22.322513,-61.692832,0.291456
0.020000,6.822252,-2.285305,7.102070,13.744535,18.117675,-210.241929,0.395697
0.020000,7.073637,-2.163861,7.381253,13.959176,10.732074,-369.280033,0.504663
0.020000,7.310646,-2.015436,7.660902,13.982423,1.162352,-478.486106,0.614142
0.020000,7.527625,-1.844481,7.937137,13.811745,-8.533894,-484.812316,0.719866
0.020000,7.721148,-1.656987,8.206590,13.472657,-16.954400,-421.025283,0.818351
0.020000,7.890306,-1.459126,8.466904,13.015694,-22.848178,-294.688918,0.907438
0.020000,8.036292,-1.256065,8.716995,12.504574,-25.556005,-135.391349,0.986381
0.020000,8.161460,-1.051604,8.956726,11.986557,-25.900828,-17.241145,1.055457
0.020000,8.268529,-0.848339,9.186466,11.487006,-24.977562,46.163299,1.115510
0.020000,8.360131,-0.647972,9.406780,11.015661,-23.567268,70.514692,1.167607
0.020000,8.438618,-0.451577,9.618277,10.574867,-22.039679,76.379478,1.212839
0.020000,8.505986,-0.259885,9.821463,10.159282,-20.779251,63.021374,1.252204
0.020000,8.563908,-0.073389,10.016746,9.764196,-19.754295,51.247800,1.286579
0.020000,8.613768,0.107519,10.204399,9.382639,-19.077855,33.822011,1.316703
0.020000,8.656715,0.282518,10.384591,9.009579,-18.653019,21.241785,1.343197
0.020000,8.693713,0.451333,10.557413,8.641124,-18.422744,11.513790,1.366579
0.020000,8.725604,0.613889,10.723067,8.282705,-17.920928,25.090775,1.387297
0.020000,8.753129,0.770332,10.881914,7.942324,-17.019073,45.092777,1.405749
0.020000,8.776904,0.920810,11.034258,7.617209,-16.255713,38.167959,1.422258
0.020000,8.797440,1.065441,11.180340,7.304091,-15.655911,29.990138,1.437087
0.020000,8.815168,1.204322,11.320348,7.000391,-15.185017,23.544676,1.450454
0.020000,8.830455,1.337548,11.454448,6.705027,-14.768205,20.840606,1.462541
0.020000,8.843616,1.465213,11.582789,6.417058,-14.398442,18.488143,1.473502
0.020000,8.854921,1.587384,11.705483,6.134668,-14.119474,13.948404,1.483463
0.020000,8.864605,1.704132,11.822631,5.857422,-13.862316,12.857886,1.492533
0.020000,8.872873,1.815508,11.934314,5.584157,-13.663255,9.953073,1.500805
0.020000,8.879903,1.921557,12.040596,5.314066,-13.504538,7.935843,1.508356
0.020000,8.885853,2.022337,12.141552,5.047793,-13.313677,9.543040,1.515255
0.020000,8.890861,2.117882,12.237227,4.783777,-13.200797,5.644010,1.521561
0.020000,8.895051,2.208231,12.327674,4.522341,-13.071791,6.450279,1.527324
0.020000,8.898531,2.293423,12.412936,4.263123,-12.960906,5.544290,1.532589
0.020000,8.901397,2.373462,12.493026,4.004499,-12.931176,1.486505,1.537392
0.020000,8.903736,2.448397,12.567999,3.748612,-12.794384,6.839567,1.541768
0.020000,8.905625,2.518243,12.637870,3.493584,-12.751368,2.150796,1.545747
0.020000,8.907130,2.583025,12.702669,3.239950,-12.681721,3.482349,1.549352
0.020000,8.908314,2.642750,12.762406,2.986862,-12.654389,1.366592,1.552607
0.020000,8.909228,2.697449,12.817113,2.735321,-12.577062,3.866379,1.555532
0.020000,8.909922,2.747123,12.866791,2.483926,-12.569735,0.366327,1.558142
0.020000,8.910435,2.791783,12.911455,2.233160,-12.538299,1.571833,1.560453
0.020000,8.910805,2.831451,12.951124,1.983487,-12.483670,2.731439,1.562477
0.020000,8.911063,2.866132,12.985807,1.734114,-12.468632,0.751876,1.564226
0.020000,8.911236,2.895842,13.015516,1.485488,-12.431303,1.866485,1.565709
0.020000,8.911348,2.920786,13.040461,1.247250,-11.911880,25.971157,1.566942
0.020000,8.911417,2.941386,13.061061,1.029981,-10.863460,52.420961,1.567954
0.020000,8.911458,2.958065,13.077740,0.833956,-9.801278,53.109096,1.568768
0.020000,8.911480,2.971241,13.090916,0.658799,-8.757854,52.171206,1.569408
0.020000,8.911492,2.981316,13.100991,0.503732,-7.753325,50.226461,1.569896
0.020000,8.911497,2.988712,13.108387,0.369836,-6.694795,52.926515,1.570253
0.020000,8.911499,2.993848,13.113524,0.256807,-5.651444,52.167543,1.570500
0.020000,8.911500,2.997133,13.116809,0.164247,-4.628012,51.171569,1.570659
0.020000,8.911500,2.998978,13.118654,0.092254,-3.599629,51.419164,1.570747
0.020000,8.911500,2.999796,13.119471,0.040890,-2.568224,51.570278,1.570787
0.020000,8.911500,3.000000,13.119675,0.010185,-1.535244,51.648985,1.570796
0.020000,8.911500,3.000000,13.119675,0.000000,-0.509254,51.299486,1.570796
